C:\workspace\baeldung\tutorials\spring-boot-custom-starter\greeter-library\src\main\java\com\baeldung\greeter\library\GreetingConfig.java
C:\workspace\baeldung\tutorials\spring-boot-custom-starter\greeter-library\src\main\java\com\baeldung\greeter\library\Greeter.java
C:\workspace\baeldung\tutorials\spring-boot-custom-starter\greeter-library\src\main\java\com\baeldung\greeter\library\GreeterConfigParams.java
